{
  "updateProfile": {
    "data": {
      "updateProfile": {
        "id": 1,
        "first_name": "John",
        "last_name": "Smi",
        "email": "js@gmail.com",
        "birth_date": 592564582,
        "country": "Singapore",
        "image_id": 1,
        "tokens_amount": 440
      }
    }
  },
  "getProfile": {
    "data": {
      "getProfile": {
        "id": 1,
        "first_name": "John",
        "last_name": "Smith",
        "email": "js@gmail.com",
        "birth_date": 592564582,
        "country": "Singapore",
        "image_id": 1,
        "tokens_amount": 440
      }
    }
  },
  "logout": {
    "data": {
      "logout": true
    }
  },
  "login": {
    "data": {
      "login": {
        "auth_token": "NNfDqSaXUEVAtTc76xDwbojgAqDrQUCvnr3vC9zFjSK7cxtjkSaJCSztyOikclP5BFUkYVvDbcHq4HswN53wFYtTUdwa30QJ5qIgPoSIRHIDj2WVRERzcIJFuEtJCKwa"
      }
    }
  },
  "getSocialApps": {
    "data": {
      "getSocialApps": {
        "facebook": "0",
        "google": "0"
      }
    }
  }
}
